,date,city,rent,product
0,2021-01-01,Elazığ,4,1569
1,2021-01-02,Şanlıurfa,2,1783
2,2021-01-03,Muş,3,1387
3,2021-01-04,Çanakkale,8,1631
4,2021-01-05,Ardahan,7,1129
5,2021-01-06,Samsun,3,1355
6,2021-01-07,Yalova,3,1886
7,2021-01-08,Çanakkale,5,1714
8,2021-01-09,Çanakkale,12,1034
9,2021-01-10,Edirne,10,1533
10,2021-01-11,Adıyaman,11,1520
11,2021-01-12,Gümüşhane,10,1683
12,2021-01-13,Rize,2,1285
13,2021-01-14,Rize,2,1959
14,2021-01-15,Burdur,15,1281
15,2021-01-16,Konya,15,1912
16,2021-01-17,Mardin,1,1410
17,2021-01-18,Erzincan,6,1209
18,2021-01-19,Sakarya,5,1703
19,2021-01-20,Muğla,3,1851
20,2021-01-21,Tekirdağ,11,1680
21,2021-01-22,Amasya,1,1833
22,2021-01-23,Burdur,3,1293
23,2021-01-24,Karaman,12,1736
24,2021-01-25,Ardahan,10,1064
25,2021-01-26,Sakarya,9,1141
26,2021-01-27,Aksaray,17,1825
27,2021-01-28,Kırklareli,5,1380
28,2021-01-29,Amasya,3,1499
29,2021-01-30,İzmir,9,1437
30,2021-01-31,Ardahan,9,1710
31,2021-02-01,Bolu,12,1093
32,2021-02-02,Osmaniye,15,1551
33,2021-02-03,Tekirdağ,7,1266
34,2021-02-04,Eskişehir,3,1158
35,2021-02-05,Kırşehir,7,1433
36,2021-02-06,Zonguldak,11,1341
37,2021-02-07,Bilecik,1,1568
38,2021-02-08,Muğla,11,1104
39,2021-02-09,Kilis,1,1424
40,2021-02-10,Şanlıurfa,5,1891
41,2021-02-11,Sinop,1,1904
42,2021-02-12,Manisa,1,1217
43,2021-02-13,İçel (Mersin),10,1569
44,2021-02-14,Karabük,7,1505
45,2021-02-15,Erzincan,3,1632
46,2021-02-16,Bingöl,10,1577
47,2021-02-17,Ordu,16,1800
48,2021-02-18,Bartın,16,1915
49,2021-02-19,Gaziantep,5,1361
50,2021-02-20,Kahramanmaraş,6,1158
51,2021-02-21,Yozgat,8,1576
52,2021-02-22,Samsun,6,1229
53,2021-02-23,Bitlis,6,1297
54,2021-02-24,Bayburt,16,1552
55,2021-02-25,Kahramanmaraş,17,1730
56,2021-02-26,Antalya,9,1678
57,2021-02-27,Samsun,17,1321
58,2021-02-28,Bursa,3,1511
59,2021-03-01,Osmaniye,4,1911
60,2021-03-02,Çankırı,9,1293
61,2021-03-03,Aksaray,14,1464
62,2021-03-04,İçel (Mersin),17,1459
63,2021-03-05,Osmaniye,17,1969
64,2021-03-06,Manisa,7,1528
65,2021-03-07,Düzce,12,1193
66,2021-03-08,Kilis,1,1484
67,2021-03-09,Burdur,2,1586
68,2021-03-10,Tekirdağ,6,1894
69,2021-03-11,Amasya,14,1772
70,2021-03-12,İzmir,13,1187
71,2021-03-13,Kilis,2,1823
72,2021-03-14,Eskişehir,13,1869
73,2021-03-15,Tokat,12,1068
74,2021-03-16,Sivas,2,1054
75,2021-03-17,Kars,2,1107
76,2021-03-18,Sivas,11,1221
77,2021-03-19,Samsun,5,1410
78,2021-03-20,Muğla,10,1512
79,2021-03-21,Bolu,1,1598
80,2021-03-22,Van,3,1250
81,2021-03-23,Konya,10,1506
82,2021-03-24,Rize,7,1922
83,2021-03-25,Kars,2,1886
84,2021-03-26,Muş,11,1002
85,2021-03-27,Isparta,12,1893
86,2021-03-28,Kilis,17,1191
87,2021-03-29,Kayseri,8,1170
88,2021-03-30,Bilecik,13,1303
89,2021-03-31,Ankara,12,1663
90,2021-04-01,Iğdır,6,1710
91,2021-04-02,Aksaray,3,1294
92,2021-04-03,Kars,7,1123
93,2021-04-04,Edirne,1,1231
94,2021-04-05,Ağrı,4,1646
95,2021-04-06,Erzincan,12,1428
96,2021-04-07,Mardin,14,1195
97,2021-04-08,Şırnak,11,1019
98,2021-04-09,Van,15,1853
99,2021-04-10,Osmaniye,11,1053
100,2021-04-11,Zonguldak,7,1090
101,2021-04-12,Kahramanmaraş,13,1039
102,2021-04-13,Hatay,11,1625
103,2021-04-14,Nevşehir,1,1272
104,2021-04-15,Samsun,7,1601
105,2021-04-16,Çorum,17,1776
106,2021-04-17,Kars,10,1022
107,2021-04-18,Zonguldak,6,1426
108,2021-04-19,Niğde,17,1948
109,2021-04-20,Kocaeli,8,1445
110,2021-04-21,Bartın,17,1475
111,2021-04-22,Gümüşhane,12,1921
112,2021-04-23,Isparta,3,1228
113,2021-04-24,Van,6,1042
114,2021-04-25,Kayseri,10,1535
115,2021-04-26,Siirt,6,1210
116,2021-04-27,İzmir,6,1146
117,2021-04-28,Kırklareli,8,1274
118,2021-04-29,Trabzon,9,1136
119,2021-04-30,Yozgat,13,1765
120,2021-05-01,Kırıkkale,13,1391
121,2021-05-02,Gümüşhane,14,1786
122,2021-05-03,Bursa,11,1128
123,2021-05-04,Erzincan,2,1318
124,2021-05-05,Tokat,10,1871
125,2021-05-06,Muş,6,1958
126,2021-05-07,Karabük,11,1447
127,2021-05-08,Isparta,14,1986
128,2021-05-09,Bolu,12,1315
129,2021-05-10,Kırklareli,15,1210
130,2021-05-11,Antalya,5,1643
131,2021-05-12,Çorum,1,1307
132,2021-05-13,Amasya,6,1220
133,2021-05-14,Isparta,11,1302
134,2021-05-15,Adana,10,1330
135,2021-05-16,Kırklareli,16,1179
136,2021-05-17,Balıkesir,13,1444
137,2021-05-18,Burdur,17,1184
138,2021-05-19,Kırşehir,7,1432
139,2021-05-20,Kırklareli,2,1547
140,2021-05-21,Karaman,2,1629
141,2021-05-22,Adıyaman,12,1454
142,2021-05-23,Giresun,8,1730
143,2021-05-24,Malatya,14,1095
144,2021-05-25,Kayseri,13,1746
145,2021-05-26,Trabzon,16,1288
146,2021-05-27,Elazığ,16,1747
147,2021-05-28,Artvin,12,1076
148,2021-05-29,Ordu,12,1891
149,2021-05-30,Aksaray,12,1921
150,2021-05-31,Düzce,8,1747
151,2021-06-01,Bingöl,15,1683
152,2021-06-02,Amasya,11,1933
153,2021-06-03,Sinop,16,1823
154,2021-06-04,Afyon,15,1220
155,2021-06-05,Edirne,1,1892
156,2021-06-06,Edirne,11,1181
157,2021-06-07,Afyon,8,1730
158,2021-06-08,Malatya,4,1541
159,2021-06-09,Sinop,9,1540
160,2021-06-10,Balıkesir,6,1716
161,2021-06-11,Siirt,7,1459
162,2021-06-12,Kars,1,1434
163,2021-06-13,Bitlis,8,1930
164,2021-06-14,Isparta,4,1387
165,2021-06-15,Bolu,8,1656
166,2021-06-16,Şanlıurfa,17,1583
167,2021-06-17,Bayburt,8,1426
168,2021-06-18,Adana,6,1789
169,2021-06-19,Sinop,6,1415
170,2021-06-20,Osmaniye,4,1474
171,2021-06-21,Hatay,1,1577
172,2021-06-22,Isparta,11,1675
173,2021-06-23,Malatya,15,1266
174,2021-06-24,Ardahan,4,1001
175,2021-06-25,Bitlis,14,1257
176,2021-06-26,Bursa,9,1447
177,2021-06-27,Adıyaman,3,1676
178,2021-06-28,Çanakkale,12,1619
179,2021-06-29,Malatya,17,1329
180,2021-06-30,Şırnak,9,1450
181,2021-07-01,Konya,2,1336
182,2021-07-02,Kayseri,2,1977
183,2021-07-03,Bingöl,12,1087
184,2021-07-04,Batman,10,1295
185,2021-07-05,Kilis,7,1731
186,2021-07-06,Batman,17,1251
187,2021-07-07,Kırklareli,5,1807
188,2021-07-08,Bartın,15,1547
189,2021-07-09,Şanlıurfa,11,1129
190,2021-07-10,Yozgat,2,1658
191,2021-07-11,Kırıkkale,8,1380
192,2021-07-12,Trabzon,11,1935
193,2021-07-13,Düzce,10,1778
194,2021-07-14,Yalova,14,1967
195,2021-07-15,Elazığ,13,1075
196,2021-07-16,Yalova,6,1459
197,2021-07-17,Rize,13,1238
198,2021-07-18,Kars,15,1851
199,2021-07-19,Iğdır,13,1224
200,2021-07-20,Diyarbakır,16,1122
201,2021-07-21,Nevşehir,6,1236
202,2021-07-22,Erzincan,3,1294
203,2021-07-23,Eskişehir,11,1422
204,2021-07-24,Sakarya,10,1937
205,2021-07-25,Isparta,15,1642
206,2021-07-26,Osmaniye,10,1391
207,2021-07-27,Tokat,15,1035
208,2021-07-28,Kilis,2,1905
209,2021-07-29,Rize,3,1655
210,2021-07-30,Manisa,11,1399
211,2021-07-31,Sivas,14,1370
212,2021-08-01,İstanbul,5,1115
213,2021-08-02,Ordu,3,1486
214,2021-08-03,Kahramanmaraş,1,1515
215,2021-08-04,Kütahya,2,1809
216,2021-08-05,Kastamonu,11,1715
217,2021-08-06,Isparta,11,1951
218,2021-08-07,Kayseri,1,1697
219,2021-08-08,Denizli,17,1680
220,2021-08-09,Erzincan,15,1789
221,2021-08-10,Yozgat,13,1037
222,2021-08-11,Sinop,16,1765
223,2021-08-12,Tekirdağ,4,1905
224,2021-08-13,Kırklareli,6,1534
225,2021-08-14,Balıkesir,10,1030
226,2021-08-15,Osmaniye,9,1400
227,2021-08-16,Çorum,6,1985
228,2021-08-17,Kayseri,14,1979
229,2021-08-18,Samsun,15,1237
230,2021-08-19,Erzurum,1,1797
231,2021-08-20,Nevşehir,8,1818
232,2021-08-21,Adıyaman,17,1480
233,2021-08-22,Şırnak,2,1926
234,2021-08-23,Adıyaman,14,1953
235,2021-08-24,Edirne,7,1605
236,2021-08-25,Samsun,1,1808
237,2021-08-26,Diyarbakır,4,1459
238,2021-08-27,Karaman,7,1311
239,2021-08-28,Aydın,10,1170
240,2021-08-29,Bitlis,13,1062
241,2021-08-30,Kırklareli,8,1047
242,2021-08-31,Samsun,1,1799
243,2021-09-01,Bursa,6,1677
244,2021-09-02,Şırnak,6,1909
245,2021-09-03,Bursa,12,1921
246,2021-09-04,Erzincan,9,1291
247,2021-09-05,Tekirdağ,8,1181
248,2021-09-06,Kayseri,7,1162
249,2021-09-07,Çorum,12,1560
250,2021-09-08,Denizli,11,1847
251,2021-09-09,Diyarbakır,5,1740
252,2021-09-10,Bartın,4,1125
253,2021-09-11,Aydın,17,1901
254,2021-09-12,Bingöl,5,1362
255,2021-09-13,Çankırı,16,1260
256,2021-09-14,Konya,16,1648
257,2021-09-15,Yalova,16,1414
258,2021-09-16,Karaman,15,1524
259,2021-09-17,Tokat,5,1695
260,2021-09-18,Ardahan,10,1126
261,2021-09-19,Kocaeli,3,1662
262,2021-09-20,Adana,12,1276
263,2021-09-21,Balıkesir,2,1519
264,2021-09-22,Bayburt,5,1615
265,2021-09-23,Kırklareli,15,1432
266,2021-09-24,Afyon,15,1460
267,2021-09-25,Yalova,13,1079
268,2021-09-26,Kütahya,10,1962
269,2021-09-27,Erzurum,9,1954
270,2021-09-28,Kastamonu,11,1515
271,2021-09-29,Elazığ,14,1795
272,2021-09-30,Artvin,8,1535
273,2021-10-01,Afyon,8,1858
274,2021-10-02,Bolu,7,1126
275,2021-10-03,Tekirdağ,14,1182
276,2021-10-04,Erzurum,5,1310
277,2021-10-05,Çankırı,9,1647
278,2021-10-06,Giresun,5,1612
279,2021-10-07,Sakarya,1,1828
280,2021-10-08,Tunceli,14,1544
281,2021-10-09,Bilecik,4,1356
282,2021-10-10,Kocaeli,14,1146
283,2021-10-11,Karaman,9,1708
284,2021-10-12,Adana,9,1817
285,2021-10-13,Şanlıurfa,2,1557
286,2021-10-14,Uşak,6,1116
287,2021-10-15,Kırklareli,4,1934
288,2021-10-16,Gümüşhane,12,1276
289,2021-10-17,Kırşehir,2,1276
290,2021-10-18,Sakarya,15,1057
291,2021-10-19,Artvin,8,1279
292,2021-10-20,Adıyaman,6,1204
293,2021-10-21,Erzincan,15,1324
294,2021-10-22,Zonguldak,15,1932
295,2021-10-23,Kastamonu,12,1068
296,2021-10-24,Elazığ,1,1785
297,2021-10-25,Samsun,2,1332
298,2021-10-26,Batman,12,1523
299,2021-10-27,Düzce,14,1188
300,2021-10-28,Ağrı,5,1007
301,2021-10-29,Kahramanmaraş,3,1411
302,2021-10-30,Balıkesir,1,1718
303,2021-10-31,Hakkari,14,1159
304,2021-11-01,İzmir,6,1110
305,2021-11-02,Zonguldak,10,1735
306,2021-11-03,Aksaray,10,1820
307,2021-11-04,Bilecik,8,1900
308,2021-11-05,Batman,5,1960
309,2021-11-06,Iğdır,1,1152
310,2021-11-07,Denizli,2,1557
311,2021-11-08,Diyarbakır,4,1799
312,2021-11-09,İçel (Mersin),6,1572
313,2021-11-10,Artvin,15,1867
314,2021-11-11,Gaziantep,2,1795
315,2021-11-12,Yalova,8,1147
316,2021-11-13,Tekirdağ,9,1592
317,2021-11-14,Kütahya,16,1800
318,2021-11-15,Gaziantep,13,1937
319,2021-11-16,Burdur,12,1789
320,2021-11-17,Tokat,15,1766
321,2021-11-18,Balıkesir,11,1090
322,2021-11-19,Ordu,7,1858
323,2021-11-20,Isparta,9,1374
324,2021-11-21,Gaziantep,8,1504
325,2021-11-22,Osmaniye,9,1179
326,2021-11-23,Diyarbakır,9,1776
327,2021-11-24,Zonguldak,11,1814
328,2021-11-25,Çanakkale,6,1759
329,2021-11-26,Kırıkkale,14,1359
330,2021-11-27,Batman,10,1453
331,2021-11-28,Muş,3,1615
332,2021-11-29,Adana,6,1522
333,2021-11-30,Adıyaman,10,1241
334,2021-12-01,Bilecik,2,1279
335,2021-12-02,Karaman,12,1824
336,2021-12-03,Osmaniye,6,1866
337,2021-12-04,Konya,15,1242
338,2021-12-05,Düzce,2,1383
339,2021-12-06,Kayseri,16,1706
340,2021-12-07,Manisa,4,1173
341,2021-12-08,Rize,3,1919
342,2021-12-09,Çorum,13,1865
343,2021-12-10,Tokat,2,1711
344,2021-12-11,Tunceli,2,1430
345,2021-12-12,Sinop,13,1046
346,2021-12-13,Kocaeli,4,1083
347,2021-12-14,Osmaniye,1,1459
348,2021-12-15,Erzincan,6,1205
349,2021-12-16,Sinop,12,1424
350,2021-12-17,Bolu,8,1554
351,2021-12-18,Elazığ,10,1566
352,2021-12-19,Gümüşhane,14,1910
353,2021-12-20,Yozgat,1,1908
354,2021-12-21,Kırıkkale,13,1976
355,2021-12-22,Şanlıurfa,4,1497
356,2021-12-23,Ardahan,6,1676
357,2021-12-24,İzmir,7,1316
358,2021-12-25,Ardahan,8,1037
359,2021-12-26,Trabzon,2,1176
360,2021-12-27,Manisa,14,1708
361,2021-12-28,Uşak,8,1642
362,2021-12-29,Burdur,7,1867
363,2021-12-30,Adana,6,1193
